{
    "cars": [
        {
            "title": "My Car",
            "image": "MyCar2.jpg",
            "id": 1
        },
        {
            "title": "My Wifes Car",
            "image": "WifesCar.jpg",
            "id": 2
        },
        {
            "title": "Weekend Car",
            "image": "LastOfTheGreats.jpg",
            "id": 3
        },
        {
            "title": "Posh Car",
            "image": "PoshCar.jpg",
            "id": 4
        },
        {
            "title": "Rubbish Car",
            "image": "RubbishCar.jpg",
            "id": 5
        },
        {
            "title": "Even Worse Car",
            "image": "EvenWorseCar.jpg",
            "id": 6
        }
    ],
    "places": [
        {
            "id": 0,
            "city": "Toronto",
            "desc": "This is the best city in the world!",
            "lat": 43.7000,
            "long": -79.4000
        },
        {
            "id": 1,
            "city": "New York",
            "desc": "This city is aiiiiite!",
            "lat": 40.6700,
            "long": -73.9400
        },
        {
            "id": 2,
            "city": "Chicago",
            "desc": "This is the second best city in the world!",
            "lat": 41.8819,
            "long": -87.6278
        },
        {
            "id": 3,
            "city": "Los Angeles",
            "desc": "This city is live!",
            "lat": 34.0500,
            "long": -118.2500
        },
        {
            "id": 4,
            "city": "Las Vegas",
            "desc": "Sin City...nuff said!",
            "lat": 36.0800,
            "long": -115.1522
        }
    ]
}